{{- $.Scratch.Add "index" slice -}}
{{- range .Site.RegularPages -}}
  {{- $.Scratch.Add "index" (dict "title" .Title "description" .Description "contents" .Plain "RelPermalink" .RelPermalink) -}}
{{- end -}}
{{- $.Scratch.Get "index" | jsonify -}}